// Jest Snapshot v1, https://goo.gl/fbAQLP

exports[`header renders correctly 1`] = `
<nav
  className="navbar navbar-expand navbar-dark bg-dark"
>
  <a
    className="navbar-brand"
    href="#home"
  >
    <img
      alt="React Bootstrap logo"
      className="d-inline-block align-top"
      height="30"
      src="logo.svg"
      width="30"
    />
     Implement your own header
  </a>
</nav>
`;
